axi_transfers.vcd
$date
    Oct 29, 2025  11:37:44
$end
$version
    TOOL:	xmsim	23.09-s001
$end
$timescale
    1 ns
$end

$scope module tbench_top $end
$var reg       1 !    aclk $end
$var reg       1 "    areset_n $end

$scope module intf $end
$var parameter 32 #    ADDR_WIDTH $end
$var parameter 32 $    DATA_WIDTH $end
$var wire      1 %    aclk  $end
$var wire      1 &    areset_n  $end
$var reg       4 '    awid [3:0] $end
$var reg       8 (    awaddr [7:0] $end
$var reg       4 )    awlen [3:0] $end
$var reg       3 *    awsize [2:0] $end
$var reg       2 +    awburst [1:0] $end
$var reg       2 ,    awlock [1:0] $end
$var reg       4 -    awcache [3:0] $end
$var reg       3 .    awprot [2:0] $end
$var reg       1 /    awvalid $end
$var reg       1 0    awready $end
$var reg       4 1    wid [3:0] $end
$var reg      128 2    wdata [127:0] $end
$var reg      16 3    wstrb [15:0] $end
$var reg       1 4    wlast $end
$var reg       1 5    wvalid $end
$var reg       1 6    wready $end
$var reg       4 7    bid [3:0] $end
$var reg       2 8    bresp [1:0] $end
$var reg       1 9    bvalid $end
$var reg       1 :    bready $end
$var reg       4 ;    arid [3:0] $end
$var reg       8 <    araddr [7:0] $end
$var reg       4 =    arlen [3:0] $end
$var reg       3 >    arsize [2:0] $end
$var reg       2 ?    arburst [1:0] $end
$var reg       2 @    arlock [1:0] $end
$var reg       4 A    arcache [3:0] $end
$var reg       3 B    arprot [2:0] $end
$var reg       1 C    arvalid $end
$var reg       1 D    arready $end
$var reg       4 E    rid [3:0] $end
$var reg      128 F    rdata [127:0] $end
$var reg       2 G    rresp [1:0] $end
$var reg       1 H    rlast $end
$var reg       1 I    rvalid $end
$var reg       1 J    rready $end
$upscope $end


$scope module DUT $end
$var parameter 32 K    DATA_WIDTH $end
$var parameter 32 L    ADDR_WIDTH $end
$var parameter 32 M    STRB_WIDTH $end
$var parameter 32 N    ID_WIDTH $end
$var parameter 32 O    PIPELINE_OUTPUT $end
$var wire      1 P    clk  $end
$var wire      1 Q    rst  $end
$var wire      4 R    s_axi_awid [3:0] $end
$var wire      8 S    s_axi_awaddr [7:0] $end
$var wire      8 T    s_axi_awlen [7:0] $end
$var wire      3 U    s_axi_awsize [2:0] $end
$var wire      2 V    s_axi_awburst [1:0] $end
$var wire      1 W    s_axi_awlock  $end
$var wire      4 X    s_axi_awcache [3:0] $end
$var wire      3 Y    s_axi_awprot [2:0] $end
$var wire      1 Z    s_axi_awvalid  $end
$var wire      1 [    s_axi_awready  $end
$var wire     128 \    s_axi_wdata [127:0] $end
$var wire     16 ]    s_axi_wstrb [15:0] $end
$var wire      1 ^    s_axi_wlast  $end
$var wire      1 _    s_axi_wvalid  $end
$var wire      1 `    s_axi_wready  $end
$var wire      4 a    s_axi_bid [3:0] $end
$var wire      2 b    s_axi_bresp [1:0] $end
$var wire      1 c    s_axi_bvalid  $end
$var wire      1 d    s_axi_bready  $end
$var wire      4 e    s_axi_arid [3:0] $end
$var wire      8 f    s_axi_araddr [7:0] $end
$var wire      8 g    s_axi_arlen [7:0] $end
$var wire      3 h    s_axi_arsize [2:0] $end
$var wire      2 i    s_axi_arburst [1:0] $end
$var wire      1 j    s_axi_arlock  $end
$var wire      4 k    s_axi_arcache [3:0] $end
$var wire      3 l    s_axi_arprot [2:0] $end
$var wire      1 m    s_axi_arvalid  $end
$var wire      1 n    s_axi_arready  $end
$var wire      4 o    s_axi_rid [3:0] $end
$var wire     128 p    s_axi_rdata [127:0] $end
$var wire      2 q    s_axi_rresp [1:0] $end
$var wire      1 r    s_axi_rlast  $end
$var wire      1 s    s_axi_rvalid  $end
$var wire      1 t    s_axi_rready  $end
$var parameter 32 u    VALID_ADDR_WIDTH $end
$var parameter 32 v    WORD_WIDTH $end
$var parameter 32 w    WORD_SIZE $end
$var parameter  1 x    READ_STATE_IDLE [0:0] $end
$var parameter  1 y    READ_STATE_BURST [0:0] $end
$var reg       1 z    read_state_reg [0:0] $end
$var reg       1 {    read_state_next [0:0] $end
$var parameter  2 |    WRITE_STATE_IDLE [1:0] $end
$var parameter  2 }    WRITE_STATE_BURST [1:0] $end
$var parameter  2 ~    WRITE_STATE_RESP [1:0] $end
$var reg       2 !!   write_state_reg [1:0] $end
$var reg       2 "!   write_state_next [1:0] $end
$var reg       1 #!   mem_wr_en $end
$var reg       1 $!   mem_rd_en $end
$var reg       4 %!   read_id_reg [3:0] $end
$var reg       4 &!   read_id_next [3:0] $end
$var reg       8 '!   read_addr_reg [7:0] $end
$var reg       8 (!   read_addr_next [7:0] $end
$var reg       8 )!   read_count_reg [7:0] $end
$var reg       8 *!   read_count_next [7:0] $end
$var reg       3 +!   read_size_reg [2:0] $end
$var reg       3 ,!   read_size_next [2:0] $end
$var reg       2 -!   read_burst_reg [1:0] $end
$var reg       2 .!   read_burst_next [1:0] $end
$var reg       4 /!   write_id_reg [3:0] $end
$var reg       4 0!   write_id_next [3:0] $end
$var reg       8 1!   write_addr_reg [7:0] $end
$var reg       8 2!   write_addr_next [7:0] $end
$var reg       8 3!   write_count_reg [7:0] $end
$var reg       8 4!   write_count_next [7:0] $end
$var reg       3 5!   write_size_reg [2:0] $end
$var reg       3 6!   write_size_next [2:0] $end
$var reg       2 7!   write_burst_reg [1:0] $end
$var reg       2 8!   write_burst_next [1:0] $end
$var reg       1 9!   s_axi_awready_reg $end
$var reg       1 :!   s_axi_awready_next $end
$var reg       1 ;!   s_axi_wready_reg $end
$var reg       1 <!   s_axi_wready_next $end
$var reg       4 =!   s_axi_bid_reg [3:0] $end
$var reg       4 >!   s_axi_bid_next [3:0] $end
$var reg       1 ?!   s_axi_bvalid_reg $end
$var reg       1 @!   s_axi_bvalid_next $end
$var reg       1 A!   s_axi_arready_reg $end
$var reg       1 B!   s_axi_arready_next $end
$var reg       4 C!   s_axi_rid_reg [3:0] $end
$var reg       4 D!   s_axi_rid_next [3:0] $end
$var reg      128 E!   s_axi_rdata_reg [127:0] $end
$var reg      128 F!   s_axi_rdata_next [127:0] $end
$var reg       1 G!   s_axi_rlast_reg $end
$var reg       1 H!   s_axi_rlast_next $end
$var reg       1 I!   s_axi_rvalid_reg $end
$var reg       1 J!   s_axi_rvalid_next $end
$var reg       4 K!   s_axi_rid_pipe_reg [3:0] $end
$var reg      128 L!   s_axi_rdata_pipe_reg [127:0] $end
$var reg       1 M!   s_axi_rlast_pipe_reg $end
$var reg       1 N!   s_axi_rvalid_pipe_reg $end
$var reg      128 O!   mem[15] [127:0] $end
$var reg      128 P!   mem[14] [127:0] $end
$var reg      128 Q!   mem[13] [127:0] $end
$var reg      128 R!   mem[12] [127:0] $end
$var reg      128 S!   mem[11] [127:0] $end
$var reg      128 T!   mem[10] [127:0] $end
$var reg      128 U!   mem[9] [127:0] $end
$var reg      128 V!   mem[8] [127:0] $end
$var reg      128 W!   mem[7] [127:0] $end
$var reg      128 X!   mem[6] [127:0] $end
$var reg      128 Y!   mem[5] [127:0] $end
$var reg      128 Z!   mem[4] [127:0] $end
$var reg      128 [!   mem[3] [127:0] $end
$var reg      128 \!   mem[2] [127:0] $end
$var reg      128 ]!   mem[1] [127:0] $end
$var reg      128 ^!   mem[0] [127:0] $end
$var wire      4 _!   s_axi_awaddr_valid [3:0] $end
$var wire      4 `!   s_axi_araddr_valid [3:0] $end
$var wire      4 a!   read_addr_valid [3:0] $end
$var wire      4 b!   write_addr_valid [3:0] $end
$var integer  32 c!   i $end
$var integer  32 d!   j $end
$upscope $end

$upscope $end

$enddefinitions $end
$dumpvars
b10 ~
b1 }
b0 |
1y
0x
b1000 w
b10000 v
b100 u
b0 O
b100 N
b10000 M
b1000 L
b10000000 K
b10000000 $
b1000 #
0!
0"
0%
0&
b0 '
b0 (
b0 )
b0 *
b0 +
b0 ,
b0 -
b0 .
0/
00
b0 1
b0 2
b0 3
04
05
06
b0 7
b0 8
09
0:
b0 ;
b0 <
b0 =
b0 >
b0 ?
b0 @
b0 A
b0 B
0C
0D
b0 E
b0 F
b0 G
0H
0I
0J
0P
1Q
b0 R
b0 S
b0 T
b0 U
b0 V
0W
b0 X
b0 Y
0Z
0[
b0 \
b0 ]
0^
0_
0`
b0 a
b0 b
0c
0d
b0 e
b0 f
b0 g
b0 h
b0 i
0j
b0 k
b0 l
0m
0n
b0 o
b0 p
b0 q
0r
0s
0t
0z
0{
b0 !!
b0 "!
0#!
0$!
b0 %!
b0 &!
b0 '!
b0 (!
b0 )!
b0 *!
b0 +!
b0 ,!
b0 -!
b0 .!
b0 /!
b0 0!
b0 1!
b0 2!
b0 3!
b0 4!
b0 5!
b0 6!
b0 7!
b0 8!
09!
1:!
0;!
0<!
b0 =!
b0 >!
0?!
0@!
0A!
1B!
b0 C!
b0 D!
b0 E!
bx F!
0G!
0H!
0I!
0J!
b0 K!
b0 L!
0M!
0N!
b0 O!
b0 P!
b0 Q!
b0 R!
b0 S!
b0 T!
b0 U!
b0 V!
b0 W!
b0 X!
b0 Y!
b0 Z!
b0 [!
b0 \!
b0 ]!
b0 ^!
b0 _!
b0 `!
b0 a!
b0 b!
b10000 c!
b10000 d!
$end
#5
1!
1P
1%
b0 c!
b1 c!
b10 c!
b11 c!
b100 c!
b101 c!
b110 c!
b111 c!
b1000 c!
b1001 c!
b1010 c!
b1011 c!
b1100 c!
b1101 c!
b1110 c!
b1111 c!
b10000 c!
1A!
0A!
19!
09!
#6
1"
0Q
1&
#10
0!
0P
0%
#15
1!
1P
1%
b0 c!
b1 c!
b10 c!
b11 c!
b100 c!
b101 c!
b110 c!
b111 c!
b1000 c!
b1001 c!
b1010 c!
b1011 c!
b1100 c!
b1101 c!
b1110 c!
b1111 c!
b10000 c!
1A!
19!
b1 +
1/
1Z
b1 V
1[
1n
0:!
1:!
b1 8!
0:!
1<!
b1 "!
10
0B!
1B!
1D
#20
0!
0P
0%
#25
1!
1P
1%
b0 c!
b1 c!
b10 c!
b11 c!
b100 c!
b101 c!
b110 c!
b111 c!
b1000 c!
b1001 c!
b1010 c!
b1011 c!
b1100 c!
b1101 c!
b1110 c!
b1111 c!
b10000 c!
b1 !!
b1 7!
09!
1;!
0/
b10100010111010110100110001001000001001000010111110000110010011100000111000110001000000001001100100010101100011110000011001010000 2
b1 3
15
14
b0 "!
0<!
1<!
b1 "!
1^
1_
b1 ]
b10100010111010110100110001001000001001000010111110000110010011100000111000110001000000001001100100010101100011110000011001010000 \
0Z
1`
0[
b0 "!
0<!
1<!
1#!
b1 2!
b11111111 4!
0<!
1@!
1:!
16
00
#30
0!
0P
0%
#35
1!
1P
1%
b0 c!
b1 c!
b10 c!
b11 c!
b100 c!
b101 c!
b110 c!
b111 c!
b1000 c!
b1001 c!
b1010 c!
b1011 c!
b1100 c!
b1101 c!
b1110 c!
b1111 c!
b10000 c!
b0 !!
b1 1!
b11111111 3!
19!
0;!
1?!
b1010000 ^!
04
05
b0 2
b0 3
1:
0#!
0:!
1:!
1d
b0 ]
b0 \
0_
0^
1c
0`
1[
0:!
0@!
1:!
19
06
10
#40
0!
0P
0%
#45
1!
1P
1%
b0 c!
b1 c!
b10 c!
b11 c!
b100 c!
b101 c!
b110 c!
b111 c!
b1000 c!
b1001 c!
b1010 c!
b1011 c!
b1100 c!
b1101 c!
b1110 c!
b1111 c!
b10000 c!
0?!
0:!
1:!
0c
0:!
1:!
09
#50
0!
0P
0%
#55
1!
1P
1%
b0 c!
b1 c!
b10 c!
b11 c!
b100 c!
b101 c!
b110 c!
b111 c!
b1000 c!
b1001 c!
b1010 c!
b1011 c!
b1100 c!
b1101 c!
b1110 c!
b1111 c!
b10000 c!
b1 *
1/
1Z
b1 U
0:!
1:!
b0 2!
b0 4!
b1 6!
0:!
1<!
b1 "!
#60
0!
0P
0%
#65
1!
1P
1%
b0 c!
b1 c!
b10 c!
b11 c!
b100 c!
b101 c!
b110 c!
b111 c!
b1000 c!
b1001 c!
b1010 c!
b1011 c!
b1100 c!
b1101 c!
b1110 c!
b1111 c!
b10000 c!
b1 !!
b0 1!
b0 3!
b1 5!
09!
1;!
0/
b10010110110101111110101100011111101110001100011001100111100001100000001010110111111000011000010100001100100101111100100101 2
b11 3
15
14
b0 "!
0<!
1<!
b1 "!
1^
1_
b11 ]
b10010110110101111110101100011111101110001100011001100111100001100000001010110111111000011000010100001100100101111100100101 \
0Z
1`
0[
b0 "!
0<!
1<!
1#!
b10 2!
b11111111 4!
0<!
1@!
1:!
16
00
#70
0!
0P
0%
#75
1!
1P
1%
b0 c!
b1 c!
b10 c!
b11 c!
b100 c!
b101 c!
b110 c!
b111 c!
b1000 c!
b1001 c!
b1010 c!
b1011 c!
b1100 c!
b1101 c!
b1110 c!
b1111 c!
b10000 c!
b0 !!
b10 1!
b11111111 3!
19!
0;!
1?!
b100101 ^!
b101111100100101 ^!
04
05
b0 2
b0 3
0#!
0:!
0@!
1:!
b0 ]
b0 \
0_
0^
1c
0`
1[
0:!
1:!
19
06
10
#80
0!
0P
0%
#85
1!
1P
1%
b0 c!
b1 c!
b10 c!
b11 c!
b100 c!
b101 c!
b110 c!
b111 c!
b1000 c!
b1001 c!
b1010 c!
b1011 c!
b1100 c!
b1101 c!
b1110 c!
b1111 c!
b10000 c!
0?!
0:!
1:!
0c
0:!
1:!
09
#90
0!
0P
0%
#95
1!
1P
1%
b0 c!
b1 c!
b10 c!
b11 c!
b100 c!
b101 c!
b110 c!
b111 c!
b1000 c!
b1001 c!
b1010 c!
b1011 c!
b1100 c!
b1101 c!
b1110 c!
b1111 c!
b10000 c!
b10 *
1/
1Z
b10 U
0:!
1:!
b0 2!
b0 4!
b10 6!
0:!
1<!
b1 "!
#100
0!
0P
0%
#105
1!
1P
1%
b0 c!
b1 c!
b10 c!
b11 c!
b100 c!
b101 c!
b110 c!
b111 c!
b1000 c!
b1001 c!
b1010 c!
b1011 c!
b1100 c!
b1101 c!
b1110 c!
b1111 c!
b10000 c!
b1 !!
b0 1!
b0 3!
b10 5!
09!
1;!
0/
b10101010110011101100101010001110111000011100010101001000111001100110100110010000000011010101000111101011110010010111101110100 2
b1111 3
15
14
b0 "!
0<!
1<!
b1 "!
1^
1_
b1111 ]
b10101010110011101100101010001110111000011100010101001000111001100110100110010000000011010101000111101011110010010111101110100 \
0Z
1`
0[
b0 "!
0<!
1<!
1#!
b100 2!
b11111111 4!
0<!
1@!
1:!
16
00
#110
0!
0P
0%
#115
1!
1P
1%
b0 c!
b1 c!
b10 c!
b11 c!
b100 c!
b101 c!
b110 c!
b111 c!
b1000 c!
b1001 c!
b1010 c!
b1011 c!
b1100 c!
b1101 c!
b1110 c!
b1111 c!
b10000 c!
b0 !!
b100 1!
b11111111 3!
19!
0;!
1?!
b101111101110100 ^!
b10111101110100 ^!
b11110010010111101110100 ^!
b111101011110010010111101110100 ^!
04
05
b0 2
b0 3
0#!
0:!
0@!
1:!
b0 ]
b0 \
0_
0^
1c
0`
1[
0:!
1:!
19
06
10
#120
0!
0P
0%
#125
1!
1P
1%
b0 c!
b1 c!
b10 c!
b11 c!
b100 c!
b101 c!
b110 c!
b111 c!
b1000 c!
b1001 c!
b1010 c!
b1011 c!
b1100 c!
b1101 c!
b1110 c!
b1111 c!
b10000 c!
0?!
0:!
1:!
0c
0:!
1:!
09
#130
0!
0P
0%
#135
1!
1P
1%
b0 c!
b1 c!
b10 c!
b11 c!
b100 c!
b101 c!
b110 c!
b111 c!
b1000 c!
b1001 c!
b1010 c!
b1011 c!
b1100 c!
b1101 c!
b1110 c!
b1111 c!
b10000 c!
b11 *
1/
1Z
b11 U
0:!
1:!
b0 2!
b0 4!
b11 6!
0:!
1<!
b1 "!
#140
0!
0P
0%
#145
1!
1P
1%
b0 c!
b1 c!
b10 c!
b11 c!
b100 c!
b101 c!
b110 c!
b111 c!
b1000 c!
b1001 c!
b1010 c!
b1011 c!
b1100 c!
b1101 c!
b1110 c!
b1111 c!
b10000 c!
b1 !!
b0 1!
b0 3!
b11 5!
09!
1;!
0/
b10001110110111110011100011100001011000000110100011100011011100110000010010000100010010001111001110101000101110010000001001001010 2
b11111111 3
15
14
b0 "!
0<!
1<!
b1 "!
1^
1_
b11111111 ]
b10001110110111110011100011100001011000000110100011100011011100110000010010000100010010001111001110101000101110010000001001001010 \
0Z
1`
0[
b0 "!
0<!
1<!
1#!
b1000 2!
b11111111 4!
0<!
1@!
1:!
16
00
#150
0!
0P
0%
#155
1!
1P
1%
b0 c!
b1 c!
b10 c!
b11 c!
b100 c!
b101 c!
b110 c!
b111 c!
b1000 c!
b1001 c!
b1010 c!
b1011 c!
b1100 c!
b1101 c!
b1110 c!
b1111 c!
b10000 c!
b0 !!
b1000 1!
b11111111 3!
19!
0;!
1?!
b111101011110010010111101001010 ^!
b111101011110010000001001001010 ^!
b111101101110010000001001001010 ^!
b10101000101110010000001001001010 ^!
b1111001110101000101110010000001001001010 ^!
b10010001111001110101000101110010000001001001010 ^!
b10000100010010001111001110101000101110010000001001001010 ^!
b10010000100010010001111001110101000101110010000001001001010 ^!
04
05
b0 2
b0 3
0#!
0:!
0@!
1:!
b0 ]
b0 \
0_
0^
1c
0`
1[
0:!
1:!
19
06
10
#160
0!
0P
0%
#165
1!
1P
1%
b0 c!
b1 c!
b10 c!
b11 c!
b100 c!
b101 c!
b110 c!
b111 c!
b1000 c!
b1001 c!
b1010 c!
b1011 c!
b1100 c!
b1101 c!
b1110 c!
b1111 c!
b10000 c!
0?!
0:!
1:!
0c
0:!
1:!
09
#170
0!
0P
0%
#175
1!
1P
1%
b0 c!
b1 c!
b10 c!
b11 c!
b100 c!
b101 c!
b110 c!
b111 c!
b1000 c!
b1001 c!
b1010 c!
b1011 c!
b1100 c!
b1101 c!
b1110 c!
b1111 c!
b10000 c!
b100 *
1/
1Z
b100 U
0:!
1:!
b0 2!
b0 4!
b100 6!
0:!
1<!
b1 "!
#180
0!
0P
0%
#185
1!
1P
1%
b0 c!
b1 c!
b10 c!
b11 c!
b100 c!
b101 c!
b110 c!
b111 c!
b1000 c!
b1001 c!
b1010 c!
b1011 c!
b1100 c!
b1101 c!
b1110 c!
b1111 c!
b10000 c!
b1 !!
b0 1!
b0 3!
b100 5!
09!
1;!
0/
b11110100110010101011011011100110101011011001100001010010000001000110101100101011001111000001011000110111001010110000000010010101 2
b1111111111111111 3
15
14
b0 "!
0<!
1<!
b1 "!
1^
1_
b1111111111111111 ]
b11110100110010101011011011100110101011011001100001010010000001000110101100101011001111000001011000110111001010110000000010010101 \
0Z
1`
0[
b0 "!
0<!
1<!
1#!
b10000 2!
b11111111 4!
0<!
1@!
1:!
16
00
#190
0!
0P
0%
#195
1!
1P
1%
b0 c!
b1 c!
b10 c!
b11 c!
b100 c!
b101 c!
b110 c!
b111 c!
b1000 c!
b1001 c!
b1010 c!
b1011 c!
b1100 c!
b1101 c!
b1110 c!
b1111 c!
b10000 c!
b0 !!
b10000 1!
b11111111 3!
19!
0;!
1?!
b10010000100010010001111001110101000101110010000001010010101 ^!
b10010000100010010001111001110101000101110010000000010010101 ^!
b10010000100010010001111001110101000001010110000000010010101 ^!
b10010000100010010001111001100110111001010110000000010010101 ^!
b10010000100010010000001011000110111001010110000000010010101 ^!
b10010000100001111000001011000110111001010110000000010010101 ^!
b10000101011001111000001011000110111001010110000000010010101 ^!
b110101100101011001111000001011000110111001010110000000010010101 ^!
b1000110101100101011001111000001011000110111001010110000000010010101 ^!
b1010010000001000110101100101011001111000001011000110111001010110000000010010101 ^!
b1001100001010010000001000110101100101011001111000001011000110111001010110000000010010101 ^!
b101011011001100001010010000001000110101100101011001111000001011000110111001010110000000010010101 ^!
b11100110101011011001100001010010000001000110101100101011001111000001011000110111001010110000000010010101 ^!
b1011011011100110101011011001100001010010000001000110101100101011001111000001011000110111001010110000000010010101 ^!
b110010101011011011100110101011011001100001010010000001000110101100101011001111000001011000110111001010110000000010010101 ^!
b11110100110010101011011011100110101011011001100001010010000001000110101100101011001111000001011000110111001010110000000010010101 ^!
04
05
b0 2
b0 3
0#!
0:!
0@!
1:!
b0 ]
b0 \
0_
0^
b1 b!
1c
0`
1[
0:!
1:!
19
06
10
#200
0!
0P
0%
#205
1!
1P
1%
b0 c!
b1 c!
b10 c!
b11 c!
b100 c!
b101 c!
b110 c!
b111 c!
b1000 c!
b1001 c!
b1010 c!
b1011 c!
b1100 c!
b1101 c!
b1110 c!
b1111 c!
b10000 c!
0?!
0:!
1:!
0c
0:!
1:!
09
#210
0!
0P
0%
#215
1!
1P
1%
b0 c!
b1 c!
b10 c!
b11 c!
b100 c!
b101 c!
b110 c!
b111 c!
b1000 c!
b1001 c!
b1010 c!
b1011 c!
b1100 c!
b1101 c!
b1110 c!
b1111 c!
b10000 c!
b0 *
b1 )
1/
b1 '
b1 R
1Z
b1 T
b0 U
0:!
1:!
b1 0!
b0 2!
b1 4!
b0 6!
0:!
1<!
b1 "!
#220
0!
0P
0%
#225
1!
1P
1%
b0 c!
b1 c!
b10 c!
b11 c!
b100 c!
b101 c!
b110 c!
b111 c!
b1000 c!
b1001 c!
b1010 c!
b1011 c!
b1100 c!
b1101 c!
b1110 c!
b1111 c!
b10000 c!
b1 !!
b1 /!
b0 1!
b1 3!
b0 5!
09!
1;!
0/
b1 1
b11010110100101010110011101000110111000111100000000000101000001011011010011100000111101111000000001111111100001010111010101111101 2
b1 3
15
b0 "!
0<!
1<!
b1 "!
1_
b1 ]
b11010110100101010110011101000110111000111100000000000101000001011011010011100000111101111000000001111111100001010111010101111101 \
0Z
b0 b!
1`
0[
b0 "!
0<!
1<!
1#!
b1 2!
b0 4!
b1 "!
16
00
#230
0!
0P
0%
#235
1!
1P
1%
b0 c!
b1 c!
b10 c!
b11 c!
b100 c!
b101 c!
b110 c!
b111 c!
b1000 c!
b1001 c!
b1010 c!
b1011 c!
b1100 c!
b1101 c!
b1110 c!
b1111 c!
b10000 c!
b1 1!
b0 3!
b11110100110010101011011011100110101011011001100001010010000001000110101100101011001111000001011000110111001010110000000001111101 ^!
b110000110011110110000000010000010110101110110011111010100101101101000100011000111010100000100110000010011101111001110100011110 2
b10 3
14
b0 "!
0#!
0<!
1<!
1#!
b10 2!
b11111111 4!
0<!
b1 >!
1@!
1:!
1^
b10 ]
b110000110011110110000000010000010110101110110011111010100101101101000100011000111010100000100110000010011101111001110100011110 \
#240
0!
0P
0%
#245
1!
1P
1%
b0 c!
b1 c!
b10 c!
b11 c!
b100 c!
b101 c!
b110 c!
b111 c!
b1000 c!
b1001 c!
b1010 c!
b1011 c!
b1100 c!
b1101 c!
b1110 c!
b1111 c!
b10000 c!
b0 !!
b10 1!
b11111111 3!
19!
0;!
b1 =!
1?!
b11110100110010101011011011100110101011011001100001010010000001000110101100101011001111000001011000110111001010111001110101111101 ^!
04
05
b0 2
b0 3
0#!
0:!
0@!
1:!
b0 ]
b0 \
0_
0^
1c
b1 a
0`
1[
0:!
1:!
19
b1 7
06
10
#250
0!
0P
0%
#255
1!
1P
1%
b0 c!
b1 c!
b10 c!
b11 c!
b100 c!
b101 c!
b110 c!
b111 c!
b1000 c!
b1001 c!
b1010 c!
b1011 c!
b1100 c!
b1101 c!
b1110 c!
b1111 c!
b10000 c!
0?!
0:!
1:!
0c
0:!
1:!
09
#260
0!
0P
0%
#265
1!
1P
1%
b0 c!
b1 c!
b10 c!
b11 c!
b100 c!
b101 c!
b110 c!
b111 c!
b1000 c!
b1001 c!
b1010 c!
b1011 c!
b1100 c!
b1101 c!
b1110 c!
b1111 c!
b10000 c!
b1 *
1/
1Z
b1 U
0:!
1:!
b0 2!
b1 4!
b1 6!
0:!
1<!
b1 "!
#270
0!
0P
0%
#275
1!
1P
1%
b0 c!
b1 c!
b10 c!
b11 c!
b100 c!
b101 c!
b110 c!
b111 c!
b1000 c!
b1001 c!
b1010 c!
b1011 c!
b1100 c!
b1101 c!
b1110 c!
b1111 c!
b10000 c!
b1 !!
b0 1!
b1 3!
b1 5!
09!
1;!
0/
b11100011010001001101011101001110111110010101100110111110111011001000101101110101011110101101011101000010000000100001111111100011 2
b11 3
15
b0 "!
0<!
1<!
b1 "!
1_
b11 ]
b11100011010001001101011101001110111110010101100110111110111011001000101101110101011110101101011101000010000000100001111111100011 \
0Z
1`
0[
b0 "!
0<!
1<!
1#!
b10 2!
b0 4!
b1 "!
16
00
#280
0!
0P
0%
#285
1!
1P
1%
b0 c!
b1 c!
b10 c!
b11 c!
b100 c!
b101 c!
b110 c!
b111 c!
b1000 c!
b1001 c!
b1010 c!
b1011 c!
b1100 c!
b1101 c!
b1110 c!
b1111 c!
b10000 c!
b10 1!
b0 3!
b11110100110010101011011011100110101011011001100001010010000001000110101100101011001111000001011000110111001010111001110111100011 ^!
b11110100110010101011011011100110101011011001100001010010000001000110101100101011001111000001011000110111001010110001111111100011 ^!
b11001000100101000001000011110010010111110011110100101111111010011101010100010100010001001010101011101100000001011101001111101111 2
b1100 3
14
b0 "!
0#!
0<!
1<!
1#!
b100 2!
b11111111 4!
0<!
1@!
1:!
1^
b1100 ]
b11001000100101000001000011110010010111110011110100101111111010011101010100010100010001001010101011101100000001011101001111101111 \
#290
0!
0P
0%
#295
1!
1P
1%
b0 c!
b1 c!
b10 c!
b11 c!
b100 c!
b101 c!
b110 c!
b111 c!
b1000 c!
b1001 c!
b1010 c!
b1011 c!
b1100 c!
b1101 c!
b1110 c!
b1111 c!
b10000 c!
b0 !!
b100 1!
b11111111 3!
19!
0;!
1?!
b11110100110010101011011011100110101011011001100001010010000001000110101100101011001111000001011000110111000001010001111111100011 ^!
b11110100110010101011011011100110101011011001100001010010000001000110101100101011001111000001011011101100000001010001111111100011 ^!
04
05
b0 2
b0 3
0#!
0:!
0@!
1:!
b0 ]
b0 \
0_
0^
1c
0`
1[
0:!
1:!
19
06
10
#300
0!
0P
0%
#305
1!
1P
1%
b0 c!
b1 c!
b10 c!
b11 c!
b100 c!
b101 c!
b110 c!
b111 c!
b1000 c!
b1001 c!
b1010 c!
b1011 c!
b1100 c!
b1101 c!
b1110 c!
b1111 c!
b10000 c!
0?!
0:!
1:!
0c
0:!
1:!
09
#310
0!
0P
0%
#315
1!
1P
1%
b0 c!
b1 c!
b10 c!
b11 c!
b100 c!
b101 c!
b110 c!
b111 c!
b1000 c!
b1001 c!
b1010 c!
b1011 c!
b1100 c!
b1101 c!
b1110 c!
b1111 c!
b10000 c!
b10 *
1/
1Z
b10 U
0:!
1:!
b0 2!
b1 4!
b10 6!
0:!
1<!
b1 "!
#320
0!
0P
0%
#325
1!
1P
1%
b0 c!
b1 c!
b10 c!
b11 c!
b100 c!
b101 c!
b110 c!
b111 c!
b1000 c!
b1001 c!
b1010 c!
b1011 c!
b1100 c!
b1101 c!
b1110 c!
b1111 c!
b10000 c!
b1 !!
b0 1!
b1 3!
b10 5!
09!
1;!
0/
b10111001000111011000011111011011101101011010110001101000011110101000000010001001111110011011111110111001000111001000111010011100 2
b1111 3
15
b0 "!
0<!
1<!
b1 "!
1_
b1111 ]
b10111001000111011000011111011011101101011010110001101000011110101000000010001001111110011011111110111001000111001000111010011100 \
0Z
1`
0[
b0 "!
0<!
1<!
1#!
b100 2!
b0 4!
b1 "!
16
00
#330
0!
0P
0%
#335
1!
1P
1%
b0 c!
b1 c!
b10 c!
b11 c!
b100 c!
b101 c!
b110 c!
b111 c!
b1000 c!
b1001 c!
b1010 c!
b1011 c!
b1100 c!
b1101 c!
b1110 c!
b1111 c!
b10000 c!
b100 1!
b0 3!
b11110100110010101011011011100110101011011001100001010010000001000110101100101011001111000001011011101100000001010001111110011100 ^!
b11110100110010101011011011100110101011011001100001010010000001000110101100101011001111000001011011101100000001011000111010011100 ^!
b11110100110010101011011011100110101011011001100001010010000001000110101100101011001111000001011011101100000111001000111010011100 ^!
b11110100110010101011011011100110101011011001100001010010000001000110101100101011001111000001011010111001000111001000111010011100 ^!
b11111010010011011100111100001101100101001000011100010011000000010111010000101100110101101111101100110011001000100001110111 2
b11110000 3
14
b0 "!
0#!
0<!
1<!
1#!
b1000 2!
b11111111 4!
0<!
1@!
1:!
1^
b11110000 ]
b11111010010011011100111100001101100101001000011100010011000000010111010000101100110101101111101100110011001000100001110111 \
#340
0!
0P
0%
#345
1!
1P
1%
b0 c!
b1 c!
b10 c!
b11 c!
b100 c!
b101 c!
b110 c!
b111 c!
b1000 c!
b1001 c!
b1010 c!
b1011 c!
b1100 c!
b1101 c!
b1110 c!
b1111 c!
b10000 c!
b0 !!
b1000 1!
b11111111 3!
19!
0;!
1?!
b11110100110010101011011011100110101011011001100001010010000001000110101100101011001111000101101110111001000111001000111010011100 ^!
b11110100110010101011011011100110101011011001100001010010000001000110101100101011101100110101101110111001000111001000111010011100 ^!
b11110100110010101011011011100110101011011001100001010010000001000110101111010000101100110101101110111001000111001000111010011100 ^!
b11110100110010101011011011100110101011011001100001010010000001000000010111010000101100110101101110111001000111001000111010011100 ^!
04
05
b0 2
b0 3
0#!
0:!
0@!
1:!
b0 ]
b0 \
0_
0^
1c
0`
1[
0:!
1:!
19
06
10
#350
0!
0P
0%
#355
1!
1P
1%
b0 c!
b1 c!
b10 c!
b11 c!
b100 c!
b101 c!
b110 c!
b111 c!
b1000 c!
b1001 c!
b1010 c!
b1011 c!
b1100 c!
b1101 c!
b1110 c!
b1111 c!
b10000 c!
0?!
0:!
1:!
0c
0:!
1:!
09
#360
0!
0P
0%
#365
1!
1P
1%
b0 c!
b1 c!
b10 c!
b11 c!
b100 c!
b101 c!
b110 c!
b111 c!
b1000 c!
b1001 c!
b1010 c!
b1011 c!
b1100 c!
b1101 c!
b1110 c!
b1111 c!
b10000 c!
b11 *
1/
1Z
b11 U
0:!
1:!
b0 2!
b1 4!
b11 6!
0:!
1<!
b1 "!
#370
0!
0P
0%
